Tutorial - Dados Comerciais Brasileiros, Parte II
…
Filtrando os dados

No nosso objetivo, o primeiro passo é realizar um filtro na base de dados para selecionarmos apenas as linhas relacionadas à China. Para isso, passamos a função do dplyr “filter” com a expressão “NO_PAIS == filtro”. Como se pode ver, caso queiramos qualquer outro país a ser selecionado, basta alterar a variável “filtro”. Em seguida, agruparemos os dados por ano e por direção de comércio e somaremos o resultado. Como se vê, o resultado são três colunas: uma para ano, outra para fluxo de comércio e outra para o valor exportado ou importado em cada ano.

filtro <- "China"

df <- exp_imp %>%
  filter(NO_PAIS == filtro) %>%
  # filter(is.na(value)) 
  group_by(CO_ANO, trade_flow) %>%
  summarise(value = sum(value))

df

# A tibble: 22 x 3
# Groups:   CO_ANO [11]
   CO_ANO trade_flow       value
    <dbl> <chr>            <dbl>
 1   2010 exp        30747553704
 2   2010 imp        25591460070
 3   2011 exp        44304607898
 4   2011 imp        32786471278
 5   2012 exp        41225811420
 6   2012 imp        34244854596
 7   2013 exp        46023192076
 8   2013 imp        37326092484
 9   2014 exp        40611876675
10   2014 imp        37338629829
# … with 12 more rows
…
De volta ao tidy

Agora temos todas as informações que queremos para fazer um gráfico com o ggplot, pacote do tidyverse absolutamente matador em matéria de visualização de dados. Antes, contudo, precisamos retornar nosso dataframe ao formato tidy. Se, antes, utilizamos a função “pivot_wider”, agora usaremos a função inversa, “pivot_longer”. Selecionaremos as colunas que queremos que se transformem em linhas (no caso, todas as colunas entre Exportações e Saldo, utilizando o operador “:”), e logo em seguida selecionamos o que devemos fazer com os “valores” de cada uma dessas colunas (no caso, eles voltaram à coluna “value”).

df <- df %>% 
  pivot_longer(cols = Exportações:Saldo, names_to = "trade_flow", values_to = "value")

df

# A tibble: 44 x 3
# Groups:   CO_ANO [11]
   CO_ANO trade_flow        value
    <dbl> <chr>             <dbl>
 1   2010 Exportações 30747553704
 2   2010 Importações 25591460070
 3   2010 Corrente    56339013774
 4   2010 Saldo        5156093634
 5   2011 Exportações 44304607898
 6   2011 Importações 32786471278
 7   2011 Corrente    77091079176
 8   2011 Saldo       11518136620
 9   2012 Exportações 41225811420
10   2012 Importações 34244854596
# … with 34 more rows
…
